Coefficient of Variation
…
`summarise()` has grouped output by 'landed_year', 'dealer_state'. You can
override using the `.groups` argument.

# Print the aggregated and percentage change data
print(City_aggregation)

# A tibble: 10,621 × 6
# Groups:   landed_year, dealer_state [220]
   landed_year dealer_state dealer_city    total_live_lbs total_value
         <int> <chr>        <chr>                   <dbl>       <dbl>
 1        1977 AL           BAYOU LA BATRE        9386658    13615361
 2        1977 AL           BON SECOUR            3772412     4992808
 3        1977 AL           CODEN                 4334387     5307025
 4        1977 AL           DAUPHIN ISLAND        1789636     2176367
 5        1977 AL           GULF SHORES            901252     1097896
 6        1977 AL           MOBILE                1759620     1869239
 7        1977 FL           APALACHICOLA          1283087     1426407
 8        1977 FL           CANTONMENT              10180       12165
 9        1977 FL           CARRABELLE             238262      242517
10        1977 FL           CORTEZ                  53249       69496
# ℹ 10,611 more rows
# ℹ 1 more variable: total_adjusted_val <dbl>
…
